module github.com/wader/fq

go 1.18

require (
	// fork of github.com/itchyny/gojq, see github.com/wader/gojq fq branch
	github.com/wader/gojq v0.12.1-0.20231105164134-2b6d9e2f4985
	// fork of github.com/chzyer/readline, see github.com/wader/readline fq branch
	github.com/wader/readline v0.0.0-20230307172220-bcb7158e7448
)

require (
	// bump: gomod-BurntSushi/toml /github\.com\/BurntSushi\/toml v(.*)/ https://github.com/BurntSushi/toml.git|^1
	// bump: gomod-BurntSushi/toml command go get -d github.com/BurntSushi/toml@v$LATEST && go mod tidy
	// bump: gomod-BurntSushi/toml link "Source diff $CURRENT..$LATEST" https://github.com/BurntSushi/toml/compare/v$CURRENT..v$LATEST
	github.com/BurntSushi/toml v1.3.2

	// bump: gomod-creasty-defaults /github\.com\/creasty\/defaults v(.*)/ https://github.com/creasty/defaults.git|^1
	// bump: gomod-creasty-defaults command go get -d github.com/creasty/defaults@v$LATEST && go mod tidy
	// bump: gomod-creasty-defaults link "Source diff $CURRENT..$LATEST" https://github.com/creasty/defaults/compare/v$CURRENT..v$LATEST
	github.com/creasty/defaults v1.7.0

	// bump: gomod-golang-snappy /github\.com\/golang\/snappy v(.*)/ https://github.com/golang/snappy.git|^0
	// bump: gomod-golang-snappy command go get -d github.com/golang/snappy@v$LATEST && go mod tidy
	// bump: gomod-golang-snappy link "Source diff $CURRENT..$LATEST" https://github.com/golang/snappy/compare/v$CURRENT..v$LATEST
	github.com/golang/snappy v0.0.4

	// has no tags
	// go get -d github.com/gomarkdown/markdown@master && go mod tidy
	github.com/gomarkdown/markdown v0.0.0-20231115200524-a660076da3fd

	// bump: gomod-gopacket /github\.com\/gopacket\/gopacket v(.*)/ https://github.com/gopacket/gopacket.git|^1
	// bump: gomod-gopacket command go get -d github.com/gopacket/gopacket@v$LATEST && go mod tidy
	// bump: gomod-gopacket link "Release notes" https://github.com/gopacket/gopacket/releases/tag/v$LATEST
	github.com/gopacket/gopacket v1.2.0

	// bump: gomod-copystructure /github\.com\/mitchellh\/copystructure v(.*)/ https://github.com/mitchellh/copystructure.git|^1
	// bump: gomod-copystructure command go get -d github.com/mitchellh/copystructure@v$LATEST && go mod tidy
	// bump: gomod-copystructure link "CHANGELOG" https://github.com/mitchellh/copystructure/blob/master/CHANGELOG.md
	github.com/mitchellh/copystructure v1.2.0

	// bump: gomod-mapstructure /github\.com\/mitchellh\/mapstructure v(.*)/ https://github.com/mitchellh/mapstructure.git|^1
	// bump: gomod-mapstructure command go get -d github.com/mitchellh/mapstructure@v$LATEST && go mod tidy
	// bump: gomod-mapstructure link "CHANGELOG" https://github.com/mitchellh/mapstructure/blob/master/CHANGELOG.md
	github.com/mitchellh/mapstructure v1.5.0

	// bump: gomod-go-difflib /github\.com\/pmezard\/go-difflib v(.*)/ https://github.com/pmezard/go-difflib.git|^1
	// bump: gomod-go-difflib command go get -d github.com/pmezard/go-difflib@v$LATEST && go mod tidy
	// bump: gomod-go-difflib link "Source diff $CURRENT..$LATEST" https://github.com/pmezard/go-difflib/compare/v$CURRENT..v$LATEST
	github.com/pmezard/go-difflib v1.0.0

	// bump: gomod-golang-x-crypto /golang\.org\/x\/crypto v(.*)/ https://github.com/golang/crypto.git|^0
	// bump: gomod-golang-x-crypto command go get -d golang.org/x/crypto@v$LATEST && go mod tidy
	// bump: gomod-golang-x-crypto link "Tags" https://github.com/golang/crypto/tags
	golang.org/x/crypto v0.15.0

	// has no tags
	// go get -d golang.org/x/exp@master && go mod tidy
	golang.org/x/exp v0.0.0-20231110203233-9a3e6036ecaa

	// bump: gomod-golang-x-net /golang\.org\/x\/net v(.*)/ https://github.com/golang/net.git|^0
	// bump: gomod-golang-x-net command go get -d golang.org/x/net@v$LATEST && go mod tidy
	// bump: gomod-golang-x-net link "Tags" https://github.com/golang/net/tags
	golang.org/x/net v0.18.0

	// bump: gomod-golang/text /golang\.org\/x\/text v(.*)/ https://github.com/golang/text.git|^0
	// bump: gomod-golang/text command go get -d golang.org/x/text@v$LATEST && go mod tidy
	// bump: gomod-golang/text link "Source diff $CURRENT..$LATEST" https://github.com/golang/text/compare/v$CURRENT..v$LATEST
	golang.org/x/text v0.14.0

	// bump: gomod-gopkg.in/yaml.v3 /gopkg\.in\/yaml\.v3 v(.*)/ https://github.com/go-yaml/yaml.git|^3
	// bump: gomod-gopkg.in/yaml.v3 command go get -d gopkg.in/yaml.v3@v$LATEST && go mod tidy
	// bump: gomod-gopkg.in/yaml.v3 link "Source diff $CURRENT..$LATEST" https://github.com/go-yaml/yaml/compare/v$CURRENT..v$LATEST
	gopkg.in/yaml.v3 v3.0.1
)

require (
	github.com/itchyny/timefmt-go v0.1.5 // indirect
	github.com/mitchellh/reflectwalk v1.0.2 // indirect
	github.com/niemeyer/pretty v0.0.0-20200227124842-a10e7caefd8e // indirect
	golang.org/x/sys v0.14.0 // indirect
	gopkg.in/check.v1 v1.0.0-20200227125254-8fa46927fb4f // indirect
)
